{
  "greeting":{
    "query": ["Hi","Hello","Hola","hey","hy"],
    "entity": [{}]
  },

  "assign_task": {
    "query": ["Assign task A to team B on sunday","allocate task K to team l on thursday","could you please give task C to team D on saturday","assign task","allocate task"],
    "entity": [{"A":"task","B": "team","sunday": "day" },{"K": "task","l": "team","thursday": "day"},{"C": "task","D": "team","saturday": "day"},{},{}]
  },

  "invite_cleaner": {
    "query": ["Invite master cleaner","send invitation to master cleaner","master cleaner invite","could you invite cleaner","please send invitation to the master cleaner"],
    "entity": [{"master": "cleaner"},{"master": "cleaner"},{"master": "cleaner"},{},{"master": "cleaner"}]
  },
  "show_listing": {
        "query": [
            "Can I get my listing?",
            "Give me my listing",
            "Provide me my listing",
            "Where are my listings",
            "where's my listing?",
            "show listing ",
            "my listings",
            "my listing",
            "could you show my listing",
            "what are there on my listings",
            "listings please",
            "show my listing"
        ],
        "entity": [{}

        ]
    },
    "show_taskmaster": {
        "query": [
            "show my task master",
            "Who are my task masters?",
            "Tell me about my task masters",
            "Can you tell me the names of my task masters?",
            "Give me details of my task masters",
            "Give me a look at my taskmaster",
            "How does my task master look?",
            "my task master status",
            "my task master",
            "could you tell me about my task masters ",
            "my taskmasters informations",
            "task masters list",
            "show me my task masters",
            "informations about my task masters",
            "who are my task masters"
        ],
        "entity": [{}

        ]
    },
    "show_reviews": {
        "query": [
            "Show me my rewiews",
            "Give me a look at my reviews",
            "Can I have a look at my reviews?",
            "How are my reviews? Can I have a look ?",
            "show me the status of my reviews",
            "How are my reviews?",
            "my reviews",
            "Give me my reviews",
            "my review informations",
            "Can you give me my reviews?",
            "tell me about my reviews",
            "How am I doing in my reviews?",
            "Show reviews",
            "info on my reviews"

        ],
        "entity": [{}

        ]
    },
    "list_status": {
        "query": [
            "my listing status?",
            "where's my listing status?",
            "show me my listing",
            "give me my listing status",
            "Give me information about my listing status?",
            "tell me my listing status",
            "information about my listing  status ",
            "my listing status",
            "tell me about my listing status",
            "listing status information",
            "listing status",
            "information on my listing status",
            "get my listing status",
            "How's my listing status?",
            "Can you please give me my listing status?",
            "provide me with my listing status"

        ],
        "entity": [{}

        ]
    }

}

